[
  {
    "name": "OshchadBank",
    "country": "Ukraine",
    "type": "Urgent",
    "depositor": {
      "name": "Yurii Heriak",
      "accountID": 126415
    },
    "amount": 12000,
    "profitability": 18,
    "timeConstraint": {
      "startDate": "2019-01-14",
      "endDate": "2020-01-14"
    }
  },
  {
    "name": "KredoBank",
    "country": "Poland",
    "type": "Accumulative",
    "depositor": {
      "name": "Ivan Khmelnytskyi",
      "accountID": 784516
    },
    "amount": 13200,
    "profitability": 17.5,
    "timeConstraint": {
      "startDate": "2019-05-23",
      "endDate": "2019-11-14"
    }
  },
  {
    "name": "PrivatBank",
    "country": "Ukraine",
    "type": "Thrifty",
    "depositor": {
      "name": "Ruslan Borodulin",
      "accountID": 591113
    },
    "amount": 32000,
    "profitability": 16.5,
    "timeConstraint": {
      "startDate": "2019-04-08",
      "endDate": "2020-04-08"
    }
  },
  {
    "name": "KredoBank",
    "country": "Ukraine",
    "type": "Calculated",
    "depositor": {
      "name": "Vitaliy Petrov",
      "accountID": 741852
    },
    "amount": 100000,
    "profitability": 12,
    "timeConstraint": {
      "startDate": "2019-10-08",
      "endDate": "2020-07-08"
    }
  }
]
